153860
154246
154421
154798
155230
155613
156020
156479
156970
157508
158036
158504
158989
159271
160041
160516
161000
161431
161889
162397
162737
163240
163689
164138
164560
14
578
1090
-10
1
